<?xml version="1.0" encoding="iso-8859-1"?>
<!-- Generator: Adobe Illustrator 16.0.0, SVG Export Plug-In . SVG Version: 6.00 Build 0)  -->
<!DOCTYPE svg PUBLIC "-//W3C//DTD SVG 1.1//EN" "http://www.w3.org/Graphics/SVG/1.1/DTD/svg11.dtd">
<svg version="1.1" id="Capa_1" xmlns="http://www.w3.org/2000/svg" xmlns:xlink="http://www.w3.org/1999/xlink" x="0px" y="0px"
	 width="62.067px" height="62.067px" viewBox="0 0 62.067 62.067" style="enable-background:new 0 0 62.067 62.067;"
	 xml:space="preserve">
<g>
	<g>
		<path d="M26.144,35.925c0.216,0,0.356-0.113,0.424-0.338c0.067-0.225,0.1-0.549,0.1-0.973c0-0.444-0.033-0.773-0.1-0.987
			c-0.067-0.214-0.208-0.322-0.424-0.322c-0.215,0-0.358,0.108-0.428,0.322c-0.069,0.213-0.104,0.543-0.104,0.987
			c0,0.424,0.035,0.749,0.104,0.973C25.786,35.812,25.929,35.925,26.144,35.925z"/>
		<path d="M11.656,35.925c0.215,0,0.356-0.113,0.424-0.338c0.067-0.225,0.1-0.549,0.1-0.973c0-0.444-0.033-0.773-0.1-0.987
			c-0.067-0.214-0.208-0.322-0.424-0.322c-0.216,0-0.358,0.108-0.429,0.322c-0.069,0.213-0.104,0.543-0.104,0.987
			c0,0.424,0.034,0.749,0.104,0.973C11.298,35.812,11.44,35.925,11.656,35.925z"/>
		<path d="M8.849,41.694L8.716,41.72c-0.125,0.021-0.215,0.049-0.269,0.079c-0.093,0.054-0.139,0.137-0.139,0.25
			c0,0.101,0.028,0.172,0.084,0.216c0.056,0.045,0.125,0.067,0.206,0.067c0.128,0,0.246-0.036,0.353-0.11
			c0.108-0.074,0.164-0.209,0.168-0.406v-0.218c-0.038,0.024-0.075,0.043-0.114,0.057C8.968,41.669,8.916,41.684,8.849,41.694z"/>
		<path d="M22.962,41.694l-0.133,0.025c-0.125,0.021-0.215,0.049-0.269,0.079c-0.093,0.054-0.139,0.137-0.139,0.25
			c0,0.101,0.028,0.172,0.084,0.216c0.057,0.045,0.125,0.067,0.207,0.067c0.128,0,0.246-0.036,0.353-0.11s0.164-0.209,0.168-0.406
			v-0.218c-0.038,0.024-0.075,0.043-0.114,0.057C23.083,41.669,23.029,41.684,22.962,41.694z"/>
		<path d="M29.004,40.87c-0.15,0-0.267,0.043-0.35,0.129c-0.082,0.085-0.134,0.2-0.156,0.347h1.01
			c-0.011-0.155-0.062-0.274-0.157-0.354C29.258,40.911,29.143,40.87,29.004,40.87z"/>
		<path d="M5.859,35.925c0.215,0,0.356-0.113,0.424-0.338c0.067-0.225,0.1-0.549,0.1-0.973c0-0.444-0.033-0.773-0.1-0.987
			c-0.068-0.214-0.208-0.322-0.424-0.322c-0.216,0-0.359,0.108-0.428,0.322c-0.07,0.213-0.104,0.543-0.104,0.987
			c0,0.424,0.035,0.749,0.104,0.973C5.502,35.812,5.644,35.925,5.859,35.925z"/>
		<path d="M8.757,33.308c-0.216,0-0.358,0.106-0.428,0.32c-0.07,0.213-0.104,0.542-0.104,0.987c0,0.423,0.035,0.749,0.104,0.973
			c0.07,0.226,0.212,0.338,0.428,0.338c0.215,0,0.356-0.112,0.424-0.338c0.066-0.225,0.1-0.55,0.1-0.973
			c0-0.445-0.034-0.773-0.1-0.987C9.113,33.413,8.973,33.308,8.757,33.308z"/>
		<path d="M23.246,33.308c-0.216,0-0.358,0.106-0.428,0.32c-0.07,0.213-0.104,0.542-0.104,0.987c0,0.423,0.034,0.749,0.104,0.973
			c0.07,0.226,0.212,0.338,0.428,0.338s0.356-0.112,0.424-0.338c0.066-0.225,0.1-0.55,0.1-0.973c0-0.445-0.033-0.773-0.1-0.987
			C23.602,33.413,23.461,33.308,23.246,33.308z"/>
		<path d="M29.042,33.308c-0.216,0-0.358,0.106-0.428,0.32c-0.07,0.213-0.104,0.542-0.104,0.987c0,0.423,0.034,0.749,0.104,0.973
			c0.069,0.226,0.212,0.338,0.428,0.338s0.356-0.112,0.424-0.338c0.066-0.225,0.1-0.55,0.1-0.973c0-0.445-0.033-0.773-0.1-0.987
			C29.398,33.413,29.257,33.308,29.042,33.308z"/>
		<path d="M14.89,40.87c-0.15,0-0.266,0.043-0.35,0.129c-0.083,0.085-0.134,0.2-0.156,0.347h1.009
			c-0.01-0.155-0.062-0.274-0.156-0.354C15.145,40.911,15.029,40.87,14.89,40.87z"/>
		<path d="M14.554,35.925c0.216,0,0.356-0.113,0.424-0.338c0.066-0.225,0.1-0.549,0.1-0.973c0-0.444-0.034-0.773-0.1-0.987
			c-0.068-0.214-0.208-0.322-0.424-0.322s-0.358,0.108-0.428,0.322c-0.07,0.213-0.104,0.543-0.104,0.987
			c0,0.424,0.035,0.749,0.104,0.973C14.196,35.812,14.338,35.925,14.554,35.925z"/>
		<path d="M20.348,33.308c-0.216,0-0.359,0.106-0.429,0.32c-0.069,0.213-0.104,0.542-0.104,0.987c0,0.423,0.035,0.749,0.104,0.973
			c0.07,0.226,0.213,0.338,0.429,0.338c0.215,0,0.356-0.112,0.423-0.338c0.067-0.225,0.1-0.55,0.1-0.973
			c0-0.445-0.033-0.773-0.1-0.987C20.704,33.413,20.563,33.308,20.348,33.308z"/>
		<path d="M62.067,44.114V12.77c0-2.282-1.834-4.141-4.087-4.141H4.086C1.833,8.628,0,10.486,0,12.77v31.345
			c0,2.283,1.833,4.141,4.086,4.141h28.916V48.11c0-0.31,0.022-0.608,0.094-0.897c0.092-0.37,0.276-0.72,0.629-1.042
			c0.343-0.312,0.838-0.603,1.578-0.856c-2.632-0.686-3.285-1.744-3.46-2.947h-0.029v-2.574c0-1.121,1.372-2.131,3.564-2.851V35.04
			c0-2.187,5.199-3.959,11.611-3.959c6.413,0,11.612,1.772,11.612,3.959v2.575h-0.03c-0.146,1.012-0.307,1.926-2.272,2.598
			c2.776,0.724,3.489,1.861,3.489,3.146v1.626v0.948h-0.028c-0.051,0.352-0.246,0.689-0.547,1.011
			c-0.454,0.484-1.17,0.928-2.1,1.312h0.867C60.233,48.254,62.067,46.397,62.067,44.114z M28.718,42.204
			c0.09,0.057,0.197,0.085,0.323,0.085c0.133,0,0.242-0.034,0.325-0.104c0.046-0.036,0.085-0.088,0.121-0.154h0.598
			c-0.015,0.134-0.088,0.269-0.216,0.405c-0.201,0.218-0.481,0.327-0.843,0.327c-0.298,0-0.562-0.092-0.789-0.276
			c-0.228-0.184-0.342-0.482-0.342-0.897c0-0.387,0.103-0.686,0.309-0.893c0.206-0.207,0.473-0.31,0.801-0.31
			c0.195,0,0.371,0.034,0.526,0.105c0.156,0.069,0.285,0.179,0.388,0.33c0.091,0.134,0.151,0.288,0.178,0.463
			c0.016,0.104,0.022,0.253,0.02,0.446h-1.631C28.493,41.957,28.572,42.114,28.718,42.204z M30.03,36.021
			c-0.19,0.329-0.519,0.494-0.988,0.494c-0.471,0-0.8-0.165-0.988-0.494c-0.19-0.33-0.284-0.798-0.284-1.407
			s0.094-1.079,0.284-1.409c0.189-0.331,0.519-0.496,0.988-0.496s0.798,0.165,0.988,0.496c0.189,0.33,0.284,0.8,0.284,1.409
			S30.22,35.691,30.03,36.021z M26.887,41.052c-0.052-0.105-0.148-0.156-0.287-0.156c-0.162,0-0.273,0.066-0.336,0.201
			c-0.031,0.069-0.048,0.155-0.048,0.256v1.334h-0.589v-1.334c0-0.133-0.014-0.229-0.041-0.29c-0.05-0.107-0.146-0.163-0.29-0.163
			c-0.167,0-0.279,0.056-0.337,0.163c-0.031,0.062-0.046,0.153-0.046,0.274v1.35H24.32V40.45h0.569v0.328
			c0.073-0.117,0.14-0.2,0.205-0.25c0.114-0.087,0.262-0.131,0.442-0.131c0.171,0,0.309,0.037,0.416,0.111
			c0.084,0.071,0.149,0.161,0.192,0.271c0.077-0.132,0.172-0.229,0.286-0.29c0.121-0.062,0.254-0.093,0.403-0.093
			c0.099,0,0.196,0.02,0.292,0.058c0.095,0.039,0.182,0.106,0.26,0.2c0.063,0.079,0.105,0.175,0.127,0.288
			c0.014,0.075,0.021,0.186,0.021,0.332l-0.004,1.41h-0.6v-1.426C26.928,41.177,26.915,41.107,26.887,41.052z M23.139,40.917
			c-0.064-0.035-0.159-0.052-0.284-0.052c-0.141,0-0.24,0.034-0.298,0.103c-0.042,0.05-0.069,0.119-0.083,0.206h-0.566
			c0.012-0.196,0.068-0.357,0.166-0.483c0.155-0.197,0.423-0.296,0.801-0.296c0.246,0,0.464,0.049,0.656,0.146
			c0.192,0.098,0.287,0.281,0.287,0.551v1.027c0,0.071,0.001,0.159,0.004,0.261c0.004,0.077,0.015,0.128,0.035,0.157
			c0.019,0.026,0.048,0.049,0.086,0.066v0.087h-0.637c-0.018-0.045-0.03-0.088-0.037-0.127c-0.007-0.04-0.012-0.085-0.017-0.137
			c-0.081,0.089-0.175,0.163-0.281,0.225c-0.127,0.072-0.271,0.109-0.431,0.109c-0.204,0-0.373-0.06-0.505-0.175
			c-0.133-0.116-0.199-0.28-0.199-0.493c0-0.274,0.107-0.475,0.321-0.598c0.118-0.067,0.29-0.114,0.518-0.144l0.201-0.025
			c0.108-0.014,0.187-0.03,0.234-0.051c0.084-0.035,0.126-0.092,0.126-0.167C23.235,41.016,23.203,40.952,23.139,40.917z
			 M23.246,36.516c-0.471,0-0.8-0.165-0.988-0.494c-0.19-0.33-0.285-0.798-0.285-1.407s0.095-1.079,0.285-1.409
			c0.189-0.331,0.519-0.496,0.988-0.496s0.798,0.165,0.988,0.496c0.189,0.33,0.284,0.8,0.284,1.409s-0.095,1.077-0.284,1.407
			C24.044,36.351,23.715,36.516,23.246,36.516z M24.871,34.614c0-0.609,0.095-1.079,0.284-1.409c0.19-0.331,0.519-0.496,0.989-0.496
			s0.798,0.165,0.987,0.496c0.19,0.33,0.285,0.8,0.285,1.409s-0.095,1.077-0.285,1.407c-0.189,0.329-0.519,0.494-0.987,0.494
			c-0.471,0-0.8-0.165-0.989-0.494C24.965,35.691,24.871,35.224,24.871,34.614z M21.335,36.021
			c-0.189,0.329-0.519,0.494-0.987,0.494c-0.471,0-0.8-0.165-0.989-0.494c-0.19-0.33-0.285-0.798-0.285-1.407
			s0.095-1.079,0.285-1.409c0.189-0.331,0.519-0.496,0.989-0.496c0.469,0,0.797,0.165,0.987,0.496c0.19,0.33,0.285,0.8,0.285,1.409
			S21.525,35.691,21.335,36.021z M21.441,39.659v3.029h-0.632l-1.233-2.148v2.148h-0.589v-3.029h0.663l1.203,2.111v-2.111H21.441z
			 M14.605,42.204c0.089,0.057,0.197,0.085,0.323,0.085c0.133,0,0.241-0.034,0.325-0.104c0.046-0.036,0.085-0.088,0.121-0.154h0.598
			c-0.016,0.134-0.088,0.269-0.217,0.405c-0.201,0.218-0.482,0.327-0.843,0.327c-0.298,0-0.562-0.092-0.788-0.276
			c-0.229-0.184-0.342-0.482-0.342-0.897c0-0.387,0.103-0.686,0.308-0.893c0.207-0.207,0.473-0.31,0.801-0.31
			c0.195,0,0.371,0.034,0.526,0.105c0.156,0.069,0.286,0.179,0.387,0.33c0.092,0.134,0.151,0.288,0.178,0.463
			c0.016,0.104,0.022,0.253,0.02,0.446h-1.631C14.379,41.957,14.458,42.114,14.605,42.204z M12.774,41.052
			c-0.052-0.105-0.148-0.156-0.288-0.156c-0.162,0-0.273,0.066-0.335,0.201c-0.031,0.069-0.048,0.155-0.048,0.256v1.334h-0.589
			v-1.334c0-0.133-0.014-0.229-0.041-0.29c-0.051-0.107-0.146-0.163-0.29-0.163c-0.167,0-0.279,0.056-0.336,0.163
			c-0.031,0.062-0.047,0.153-0.047,0.274v1.35h-0.594V40.45h0.568v0.328c0.073-0.117,0.141-0.2,0.206-0.25
			c0.113-0.087,0.262-0.131,0.441-0.131c0.171,0,0.31,0.037,0.416,0.111c0.084,0.071,0.149,0.161,0.193,0.271
			c0.077-0.132,0.172-0.229,0.286-0.29c0.121-0.062,0.254-0.093,0.403-0.093c0.099,0,0.196,0.02,0.292,0.058
			c0.096,0.039,0.182,0.106,0.261,0.2c0.062,0.079,0.104,0.175,0.126,0.288c0.014,0.075,0.021,0.186,0.021,0.332l-0.004,1.41h-0.601
			v-1.426C12.814,41.177,12.801,41.107,12.774,41.052z M9.025,40.917c-0.064-0.035-0.159-0.052-0.284-0.052
			c-0.141,0-0.24,0.034-0.298,0.103c-0.042,0.05-0.068,0.119-0.083,0.206H7.794c0.013-0.196,0.068-0.357,0.166-0.483
			c0.155-0.197,0.422-0.296,0.801-0.296c0.246,0,0.464,0.049,0.656,0.146c0.192,0.098,0.287,0.281,0.287,0.551v1.027
			c0,0.071,0.001,0.159,0.004,0.261c0.004,0.077,0.016,0.128,0.036,0.157c0.019,0.026,0.048,0.049,0.086,0.066v0.087H9.193
			c-0.018-0.045-0.031-0.088-0.038-0.127c-0.006-0.04-0.013-0.085-0.017-0.137c-0.081,0.089-0.175,0.163-0.281,0.225
			c-0.127,0.072-0.27,0.109-0.43,0.109c-0.204,0-0.373-0.06-0.505-0.175c-0.133-0.116-0.199-0.28-0.199-0.493
			c0-0.274,0.107-0.475,0.321-0.598c0.117-0.067,0.289-0.114,0.517-0.144l0.201-0.025c0.108-0.014,0.187-0.03,0.235-0.051
			c0.084-0.035,0.125-0.092,0.125-0.167C9.122,41.016,9.089,40.952,9.025,40.917z M9.746,36.021
			c-0.189,0.329-0.519,0.494-0.987,0.494c-0.471,0-0.799-0.165-0.989-0.494c-0.189-0.33-0.284-0.798-0.284-1.407
			s0.095-1.079,0.284-1.409c0.19-0.331,0.519-0.496,0.989-0.496s0.798,0.165,0.987,0.496c0.19,0.33,0.284,0.8,0.284,1.409
			S9.936,35.691,9.746,36.021z M6.358,24.121V21.96h2.193v2.21H6.362C6.362,24.155,6.358,24.139,6.358,24.121z M14.897,24.121
			c0,0.017-0.005,0.032-0.005,0.049h-2.189v-2.21h2.193L14.897,24.121L14.897,24.121z M12.704,25.31h1.953
			c-0.354,0.834-1.074,1.466-1.953,1.727V25.31z M12.136,20.822L12.136,20.822l-0.57,0.001v3.348H9.691v-5.537h2.156
			c1.38,0,2.537,0.927,2.912,2.188H12.136z M8.551,20.822H6.498c0.294-0.986,1.067-1.757,2.054-2.049L8.551,20.822L8.551,20.822z
			 M8.551,25.31v1.727c-0.879-0.26-1.599-0.893-1.953-1.727H8.551z M9.689,25.31h1.876v1.866H9.689V25.31z M11.656,32.709
			c0.47,0,0.798,0.165,0.987,0.496c0.189,0.33,0.285,0.8,0.285,1.409s-0.095,1.077-0.285,1.407
			c-0.189,0.329-0.519,0.494-0.987,0.494c-0.471,0-0.799-0.165-0.988-0.494c-0.19-0.33-0.285-0.798-0.285-1.407
			s0.095-1.079,0.285-1.409C10.856,32.874,11.185,32.709,11.656,32.709z M5.859,32.709c0.47,0,0.798,0.165,0.987,0.496
			c0.189,0.33,0.285,0.8,0.285,1.409s-0.095,1.077-0.285,1.407c-0.189,0.329-0.519,0.494-0.987,0.494
			c-0.471,0-0.799-0.165-0.989-0.494c-0.189-0.33-0.285-0.798-0.285-1.407s0.095-1.079,0.285-1.409
			C5.06,32.874,5.389,32.709,5.859,32.709z M4.872,39.659h0.664l1.202,2.111v-2.111h0.59v3.029H6.694L5.461,40.54v2.148h-0.59
			V39.659z M13.281,34.614c0-0.609,0.094-1.079,0.284-1.409c0.19-0.331,0.519-0.496,0.989-0.496c0.469,0,0.798,0.165,0.987,0.496
			c0.189,0.33,0.284,0.8,0.284,1.409s-0.095,1.077-0.284,1.407c-0.19,0.329-0.519,0.494-0.987,0.494
			c-0.471,0-0.799-0.165-0.989-0.494C13.375,35.691,13.281,35.224,13.281,34.614z M49.971,24.817c-0.854,0-1.656-0.21-2.38-0.559
			c-0.886,0.566-1.932,0.898-3.058,0.898c-3.14,0-5.693-2.553-5.693-5.693c0-3.139,2.554-5.693,5.693-5.693
			c0.982,0,1.908,0.25,2.716,0.69c0.81-0.459,1.729-0.744,2.722-0.744c3.062,0,5.549,2.49,5.549,5.55
			C55.52,22.326,53.032,24.817,49.971,24.817z"/>
		<path d="M45.478,19.121h-0.521h-0.521c0.007-0.247,0.036-0.489,0.074-0.728h0.521h0.521h3.076c-0.058-0.3-0.146-0.586-0.254-0.865
			h-2.562H45.27h-0.542c0.086-0.258,0.187-0.506,0.308-0.747h0.588h0.592h1.78c-0.188-0.312-0.404-0.604-0.657-0.865h-0.355h-0.736
			h-0.67c0.211-0.275,0.443-0.529,0.7-0.76c-0.538-0.219-1.125-0.346-1.741-0.346c-2.566,0-4.652,2.086-4.652,4.652
			c0,2.565,2.086,4.651,4.652,4.651c0.735,0,1.422-0.187,2.039-0.492c-0.2-0.156-0.399-0.313-0.577-0.496h0.787h0.053
			c0.129-0.101,0.227-0.234,0.345-0.347c0.176-0.168,0.364-0.324,0.515-0.518h-1.068h-0.674h-0.641
			c-0.137-0.212-0.255-0.438-0.364-0.667h0.59h0.592h1.994c0.146-0.274,0.266-0.562,0.358-0.865h-2.755h-0.545h-0.543
			c-0.066-0.244-0.114-0.491-0.147-0.748h0.521h0.521h3.116c0.03-0.224,0.069-0.445,0.069-0.678c0-0.063-0.018-0.123-0.02-0.187
			h-3.223V19.121z"/>
		<path d="M35.783,45.701c-0.28,0.148-0.53,0.306-0.745,0.469c-0.427,0.325-0.718,0.675-0.848,1.042
			c-0.011,0.029-0.024,0.058-0.033,0.088c-0.032,0.114-0.052,0.23-0.052,0.349v0.605v1.565V50h0.027
			c0.204,1.406,2.747,2.6,6.336,3.136c0.411,0.056,0.846,0.102,1.291,0.14c0.943,0.096,1.921,0.163,2.955,0.163
			c2.838,0,5.409-0.383,7.312-1.001c1.648-0.536,2.786-1.251,3.156-2.054c0.059-0.125,0.096-0.253,0.115-0.384h0.026v-0.18v-1.565
			v-0.171c0.775-0.255,1.439-0.548,1.961-0.871c0.343-0.214,0.623-0.44,0.835-0.678c0.12-0.134,0.211-0.272,0.285-0.412
			c0.079-0.151,0.128-0.306,0.15-0.462h0.026v-0.183v-2.171c0-0.55-0.37-1.069-1.016-1.537c-0.729-0.529-1.818-0.985-3.165-1.337
			c0.098-0.033,0.185-0.068,0.279-0.105c0.42-0.154,0.801-0.321,1.137-0.499c0.968-0.515,1.558-1.119,1.652-1.769h0.027V37.88
			v-0.123v-2.048c0-1.576-2.956-2.911-7.075-3.409c-1.107-0.132-2.292-0.209-3.534-0.209c-2.307,0-4.435,0.254-6.175,0.68
			c-2.255,0.552-3.843,1.397-4.293,2.374c-0.085,0.185-0.142,0.372-0.142,0.564v1.737c-1.28,0.42-2.255,0.948-2.79,1.541
			c-0.303,0.338-0.467,0.694-0.467,1.064l0,0v2.171v0.181h0.027c0.065,0.452,0.365,0.881,0.873,1.275
			c0.726,0.563,1.863,1.05,3.28,1.418c-0.098,0.034-0.185,0.07-0.279,0.106C36.5,45.355,36.119,45.522,35.783,45.701z M46.887,33.13
			c6.311,0,9.566,1.806,9.566,2.577c0,0.123-0.092,0.273-0.256,0.437c-0.538,0.537-1.948,1.23-4.214,1.68
			c-0.322,0.063-0.659,0.123-1.014,0.176c-0.146,0.022-0.301,0.038-0.454,0.059c-0.268,0.035-0.545,0.065-0.832,0.094
			c-0.855,0.08-1.784,0.132-2.799,0.132c-1.355,0-2.56-0.087-3.632-0.226c-0.911-0.118-1.722-0.273-2.425-0.453
			c-0.455-0.117-0.867-0.241-1.233-0.372c-0.349-0.123-0.663-0.251-0.933-0.381c-0.512-0.244-0.87-0.489-1.092-0.708
			c-0.162-0.163-0.255-0.315-0.255-0.437C37.319,34.936,40.574,33.13,46.887,33.13z M35.402,47.212
			c0.322-0.32,0.954-0.693,1.895-1.042c0.075-0.027,0.146-0.058,0.228-0.084c0.014,0.028,0.021,0.057,0.037,0.084
			c0.154,0.272,0.4,0.53,0.721,0.776c0.117,0.09,0.241,0.18,0.378,0.266c0.246,0.153,0.533,0.298,0.839,0.437
			c0.491,0.224,1.048,0.427,1.674,0.605c1.841,0.524,4.211,0.843,6.799,0.843c1.948,0,3.769-0.183,5.338-0.495
			c-0.957,0.536-2.623,1.098-4.963,1.4c-1.071,0.139-2.277,0.224-3.632,0.224c-1.355,0-2.56-0.085-3.632-0.224
			c-2.858-0.369-4.701-1.127-5.489-1.747c-0.073-0.058-0.137-0.114-0.191-0.169c-0.163-0.163-0.256-0.314-0.256-0.437
			C35.148,47.526,35.24,47.376,35.402,47.212z M57.285,43.743c-0.538,0.536-1.948,1.229-4.215,1.681
			c-0.321,0.063-0.659,0.123-1.013,0.176c-0.146,0.022-0.302,0.04-0.454,0.059c-0.268,0.035-0.545,0.065-0.831,0.094
			c-0.856,0.082-1.785,0.133-2.801,0.133c-0.891,0-1.713-0.041-2.481-0.104c0.492-0.03,0.974-0.068,1.44-0.122
			c0.679-0.075,1.326-0.175,1.937-0.293c0.438-0.085,0.854-0.181,1.251-0.286c0.359-0.096,0.706-0.195,1.025-0.305
			c1.187-0.405,2.092-0.908,2.608-1.469c0.224-0.241,0.37-0.495,0.439-0.756c0.013-0.049,0.015-0.1,0.021-0.148h0.027v-0.181v-0.757
			c2.182,0.59,3.3,1.392,3.3,1.842C57.54,43.429,57.448,43.579,57.285,43.743z M36.438,38.486c0.15,0.301,0.404,0.589,0.759,0.861
			c0.327,0.25,0.738,0.485,1.217,0.702c0.584,0.264,1.271,0.5,2.043,0.703c0.332,0.086,0.677,0.165,1.037,0.238
			c0.409,0.082,0.828,0.159,1.269,0.223c1.269,0.183,2.662,0.284,4.123,0.284c1.907,0,3.692-0.175,5.237-0.474
			c0.034-0.007,0.066-0.015,0.1-0.021c-0.016,0.009-0.037,0.02-0.054,0.027c-0.561,0.307-1.352,0.619-2.366,0.887
			c-0.73,0.193-1.578,0.36-2.543,0.486c-1.071,0.139-2.276,0.224-3.632,0.224c-0.682,0-1.319-0.024-1.929-0.062
			c-0.603-0.039-1.17-0.093-1.702-0.161c-0.19-0.026-0.385-0.049-0.566-0.077c-0.264-0.041-0.521-0.086-0.766-0.132
			c-0.225-0.043-0.435-0.09-0.642-0.137c-1.97-0.448-3.212-1.076-3.709-1.57c-0.163-0.163-0.257-0.314-0.257-0.437
			C34.061,39.667,34.863,39.03,36.438,38.486z"/>
	</g>
</g>
<g>
</g>
<g>
</g>
<g>
</g>
<g>
</g>
<g>
</g>
<g>
</g>
<g>
</g>
<g>
</g>
<g>
</g>
<g>
</g>
<g>
</g>
<g>
</g>
<g>
</g>
<g>
</g>
<g>
</g>
</svg>
