<?xml version="1.0" encoding="UTF-8" standalone="no"?>
<!-- Generator: Adobe Illustrator 19.0.0, SVG Export Plug-In . SVG Version: 6.00 Build 0)  -->

<svg
   xmlns:dc="http://purl.org/dc/elements/1.1/"
   xmlns:cc="http://creativecommons.org/ns#"
   xmlns:rdf="http://www.w3.org/1999/02/22-rdf-syntax-ns#"
   xmlns:svg="http://www.w3.org/2000/svg"
   xmlns="http://www.w3.org/2000/svg"
   xmlns:sodipodi="http://sodipodi.sourceforge.net/DTD/sodipodi-0.dtd"
   xmlns:inkscape="http://www.inkscape.org/namespaces/inkscape"
   version="1.1"
   id="Capa_1"
   x="0px"
   y="0px"
   viewBox="0 0 512 512"
   style="enable-background:new 0 0 512 512;"
   xml:space="preserve"
   sodipodi:docname="verifiedIcon.svg"
   inkscape:version="0.92.4 5da689c313, 2019-01-14"><metadata
   id="metadata2289"><rdf:RDF><cc:Work
       rdf:about=""><dc:format>image/svg+xml</dc:format><dc:type
         rdf:resource="http://purl.org/dc/dcmitype/StillImage" /></cc:Work></rdf:RDF></metadata><defs
   id="defs2287" /><sodipodi:namedview
   pagecolor="#ffffff"
   bordercolor="#666666"
   borderopacity="1"
   objecttolerance="10"
   gridtolerance="10"
   guidetolerance="10"
   inkscape:pageopacity="0"
   inkscape:pageshadow="2"
   inkscape:window-width="640"
   inkscape:window-height="480"
   id="namedview2285"
   showgrid="false"
   inkscape:zoom="0.4609375"
   inkscape:cx="256"
   inkscape:cy="256"
   inkscape:window-x="0"
   inkscape:window-y="0"
   inkscape:window-maximized="0"
   inkscape:current-layer="Capa_1" />
<g
   id="g2252"
   style="fill:#ffffff">
	<g
   id="g2250"
   style="fill:#ffffff">
		<path
   d="M437.019,74.98C388.667,26.629,324.38,0,256,0C187.619,0,123.332,26.629,74.98,74.98C26.629,123.332,0,187.62,0,256    s26.629,132.667,74.98,181.019C123.332,485.371,187.62,512,256,512s132.667-26.629,181.019-74.98    C485.371,388.667,512,324.38,512,256S485.371,123.333,437.019,74.98z M378.306,195.073L235.241,338.139    c-2.929,2.929-6.768,4.393-10.606,4.393c-3.839,0-7.678-1.464-10.607-4.393l-80.334-80.333c-5.858-5.857-5.858-15.354,0-21.213    c5.857-5.858,15.355-5.858,21.213,0l69.728,69.727l132.458-132.46c5.857-5.858,15.355-5.858,21.213,0    C384.164,179.718,384.164,189.215,378.306,195.073z"
   id="path2248"
   style="fill:#ffffff" />
	</g>
</g>
<g
   id="g2254">
</g>
<g
   id="g2256">
</g>
<g
   id="g2258">
</g>
<g
   id="g2260">
</g>
<g
   id="g2262">
</g>
<g
   id="g2264">
</g>
<g
   id="g2266">
</g>
<g
   id="g2268">
</g>
<g
   id="g2270">
</g>
<g
   id="g2272">
</g>
<g
   id="g2274">
</g>
<g
   id="g2276">
</g>
<g
   id="g2278">
</g>
<g
   id="g2280">
</g>
<g
   id="g2282">
</g>
</svg>